{
  "dev": {
    "driver": "mysql",
    "host": "localhost",
    "port": "3306",
    "user": "root",
    "password": "1111",
    "database": "express_db",
    "multipleStatements": true
  },
  "prod": {
    "driver": "mysql",
    "host": "localhost",
    "port": "3306",
    "user": "root",
    "password": "1111",
    "database": "express_db_prod",
    "multipleStatements": true
  },
  "sql-file": true
}
